{
  "$schema": "node_modules/nx/schemas/project-schema.json",
  "name": "ng15-course-list-ngrx",
  "projectType": "application",
  "generators": {
    "@schematics/angular:component": {
      "style": "scss"
    },
    "@schematics/angular:application": {
      "strict": true
    }
  },
  "sourceRoot": "src",
  "prefix": "app",
  "targets": {
    "build": {
      "executor": "@angular-devkit/build-angular:browser",
      "options": {
        "outputPath": "dist/ng15-course-list-ngrx",
        "index": "src/index.html",
        "main": "src/main.ts",
        "polyfills": "src/polyfills.ts",
        "tsConfig": "tsconfig.app.json",
        "inlineStyleLanguage": "scss",
        "assets": [
          "src/favicon.ico",
          "src/assets"
        ],
        "styles": [
          "@angular/material/prebuilt-themes/indigo-pink.css",
          "node_modules/bootstrap/scss/bootstrap.scss",
          "src/styles.scss"
        ],
        "scripts": [
          "node_modules/bootstrap/dist/js/bootstrap.bundle.min.js"
        ]
      },
      "configurations": {
        "production": {
          "budgets": [
            {
              "type": "initial",
              "maximumWarning": "2mb",
              "maximumError": "2mb"
            },
            {
              "type": "anyComponentStyle",
              "maximumWarning": "2kb",
              "maximumError": "4kb"
            }
          ],
          "fileReplacements": [
            {
              "replace": "src/environments/environment.ts",
              "with": "src/environments/environment.prod.ts"
            }
          ],
          "outputHashing": "all"
        },
        "development": {
          "buildOptimizer": false,
          "optimization": false,
          "vendorChunk": true,
          "extractLicenses": false,
          "sourceMap": true,
          "namedChunks": true
        }
      },
      "defaultConfiguration": "production",
      "outputs": [
        "{options.outputPath}"
      ]
    },
    "serve": {
      "executor": "@angular-devkit/build-angular:dev-server",
      "configurations": {
        "production": {
          "browserTarget": "ng15-course-list-ngrx:build:production"
        },
        "development": {
          "browserTarget": "ng15-course-list-ngrx:build:development"
        }
      },
      "defaultConfiguration": "development"
    },
    "extract-i18n": {
      "executor": "@angular-devkit/build-angular:extract-i18n",
      "options": {
        "browserTarget": "ng15-course-list-ngrx:build"
      }
    },
    "test": {
      "executor": "@angular-devkit/build-angular:karma",
      "options": {
        "main": "src/test.ts",
        "polyfills": "src/polyfills.ts",
        "tsConfig": "tsconfig.spec.json",
        "karmaConfig": "karma.conf.js",
        "inlineStyleLanguage": "scss",
        "assets": [
          "src/favicon.ico",
          "src/assets"
        ],
        "styles": [
          "@angular/material/prebuilt-themes/indigo-pink.css",
          "src/styles.scss"
        ],
        "scripts": []
      }
    },
    "lint": {
      "executor": "@angular-eslint/builder:lint",
      "options": {
        "lintFilePatterns": [
          "src/**/*.ts",
          "src/**/*.html"
        ]
      },
      "outputs": [
        "{options.outputFile}"
      ]
    }
  }
}
